\relax 
\providecommand\hyper@newdestlabel[2]{}
\providecommand\HyperFirstAtBeginDocument{\AtBeginDocument}
\HyperFirstAtBeginDocument{\ifx\hyper@anchor\@undefined
\global\let\oldcontentsline\contentsline
\gdef\contentsline#1#2#3#4{\oldcontentsline{#1}{#2}{#3}}
\global\let\oldnewlabel\newlabel
\gdef\newlabel#1#2{\newlabelxx{#1}#2}
\gdef\newlabelxx#1#2#3#4#5#6{\oldnewlabel{#1}{{#2}{#3}}}
\AtEndDocument{\ifx\hyper@anchor\@undefined
\let\contentsline\oldcontentsline
\let\newlabel\oldnewlabel
\fi}
\fi}
\global\let\hyper@last\relax 
\gdef\HyperFirstAtBeginDocument#1{#1}
\providecommand\HyField@AuxAddToFields[1]{}
\providecommand\HyField@AuxAddToCoFields[2]{}
\select@language{english}
\@writefile{toc}{\select@language{english}}
\@writefile{lof}{\select@language{english}}
\@writefile{lot}{\select@language{english}}
\newlabel{index::doc}{{}{1}{}{section*.2}{}}
\@writefile{toc}{\contentsline {chapter}{\numberline {1}Who should read this guide}{1}{chapter.1}}
\@writefile{lof}{\addvspace {10\p@ }}
\@writefile{lot}{\addvspace {10\p@ }}
\newlabel{target_developer:work-with-the-development-tools}{{1}{1}{Who should read this guide}{chapter.1}{}}
\newlabel{target_developer::doc}{{1}{1}{Who should read this guide}{chapter.1}{}}
\newlabel{target_developer:who-should-read-this-guide}{{1}{1}{Who should read this guide}{chapter.1}{}}
\@writefile{toc}{\contentsline {chapter}{\numberline {2}Introduction}{3}{chapter.2}}
\@writefile{lof}{\addvspace {10\p@ }}
\@writefile{lot}{\addvspace {10\p@ }}
\newlabel{introduction:introduction}{{2}{3}{Introduction}{chapter.2}{}}
\newlabel{introduction::doc}{{2}{3}{Introduction}{chapter.2}{}}
\@writefile{toc}{\contentsline {section}{\numberline {2.1}NG-RT Development Tools}{3}{section.2.1}}
\newlabel{introduction:ng-rt-development-tools}{{2.1}{3}{NG-RT Development Tools}{section.2.1}{}}
\@writefile{toc}{\contentsline {chapter}{\numberline {3}Installation of the Development Tools}{5}{chapter.3}}
\@writefile{lof}{\addvspace {10\p@ }}
\@writefile{lot}{\addvspace {10\p@ }}
\newlabel{details::doc}{{3}{5}{Installation of the Development Tools}{chapter.3}{}}
\newlabel{details:installation-of-the-development-tools}{{3}{5}{Installation of the Development Tools}{chapter.3}{}}
\@writefile{toc}{\contentsline {section}{\numberline {3.1}Install it as a package dependency}{5}{section.3.1}}
\newlabel{details:install-it-as-a-package-dependency}{{3.1}{5}{Install it as a package dependency}{section.3.1}{}}
\@writefile{toc}{\contentsline {section}{\numberline {3.2}Install it globally}{5}{section.3.2}}
\newlabel{details:install-it-globally}{{3.2}{5}{Install it globally}{section.3.2}{}}
\@writefile{toc}{\contentsline {section}{\numberline {3.3}Uninstall - if installed globally}{5}{section.3.3}}
\newlabel{details:uninstall-if-installed-globally}{{3.3}{5}{Uninstall - if installed globally}{section.3.3}{}}
\@writefile{toc}{\contentsline {chapter}{\numberline {4}Configuration}{7}{chapter.4}}
\@writefile{lof}{\addvspace {10\p@ }}
\@writefile{lot}{\addvspace {10\p@ }}
\newlabel{details:configuration}{{4}{7}{Configuration}{chapter.4}{}}
\@writefile{toc}{\contentsline {chapter}{\numberline {5}Work with the NG-RT-Development Tools}{9}{chapter.5}}
\@writefile{lof}{\addvspace {10\p@ }}
\@writefile{lot}{\addvspace {10\p@ }}
\newlabel{details:work-with-the-ng-rt-development-tools}{{5}{9}{Work with the NG-RT-Development Tools}{chapter.5}{}}
\@writefile{toc}{\contentsline {section}{\numberline {5.1}usage of configuration options for userguides}{9}{section.5.1}}
\newlabel{details:usage-of-configuration-options-for-userguides}{{5.1}{9}{usage of configuration options for userguides}{section.5.1}{}}
\@writefile{toc}{\contentsline {chapter}{\numberline {6}Command line interface}{11}{chapter.6}}
\@writefile{lof}{\addvspace {10\p@ }}
\@writefile{lot}{\addvspace {10\p@ }}
\newlabel{details:command-line-interface}{{6}{11}{Command line interface}{chapter.6}{}}
\@writefile{toc}{\contentsline {chapter}{\numberline {7}Technical Information}{13}{chapter.7}}
\@writefile{lof}{\addvspace {10\p@ }}
\@writefile{lot}{\addvspace {10\p@ }}
\newlabel{technical:technical-information}{{7}{13}{Technical Information}{chapter.7}{}}
\newlabel{technical::doc}{{7}{13}{Technical Information}{chapter.7}{}}
\@writefile{toc}{\contentsline {section}{\numberline {7.1}Installation}{13}{section.7.1}}
\newlabel{technical:installation}{{7.1}{13}{Installation}{section.7.1}{}}
\@writefile{toc}{\contentsline {section}{\numberline {7.2}Pre-requisites}{13}{section.7.2}}
\newlabel{technical:pre-requisites}{{7.2}{13}{Pre-requisites}{section.7.2}{}}
\@writefile{toc}{\contentsline {section}{\numberline {7.3}Technical details}{13}{section.7.3}}
\newlabel{technical:technical-details}{{7.3}{13}{Technical details}{section.7.3}{}}
\@writefile{toc}{\contentsline {chapter}{\numberline {8}Technical diagrams}{15}{chapter.8}}
\@writefile{lof}{\addvspace {10\p@ }}
\@writefile{lot}{\addvspace {10\p@ }}
\newlabel{technical_diagrams:technical-diagrams}{{8}{15}{Technical diagrams}{chapter.8}{}}
\newlabel{technical_diagrams::doc}{{8}{15}{Technical diagrams}{chapter.8}{}}
\@writefile{toc}{\contentsline {section}{\numberline {8.1}Development Tools UML diagrams}{15}{section.8.1}}
\newlabel{technical_diagrams:development-tools-uml-diagrams}{{8.1}{15}{Development Tools UML diagrams}{section.8.1}{}}
\@writefile{toc}{\contentsline {chapter}{\numberline {9}Legal Disclaimers and Legal Information}{17}{chapter.9}}
\@writefile{lof}{\addvspace {10\p@ }}
\@writefile{lot}{\addvspace {10\p@ }}
\newlabel{legal:legal-disclaimers-and-legal-information}{{9}{17}{Legal Disclaimers and Legal Information}{chapter.9}{}}
\newlabel{legal::doc}{{9}{17}{Legal Disclaimers and Legal Information}{chapter.9}{}}
